(* Degree.Units.Earned *)
37
65
14
2
4
9
14
56
8
0
24
30
9
46
27
36
12
18
15
60
4
10
4
24
62
23
7
11
13
4
4
50
8
10
8
11
53
37
6
33
56
40
63
4
40
2
58
25
59
3
70
65
26
3
13
62
13
28
63
39
4
78
50
24
33
40
12
7
14
39
53
29
22
5
41
13
50
12
51
52
53
56
59
8
0
8
50
48
71
12
10
33
9
47
11
62
58
3
12
14
11
5
68
53
44
14
62
54
35
4
15
26
16
28
48
3
54
49
33
52
30
3
38
35
10
32
17
21
1
16
42
47
51
13
13
3
44
18
3
51
16
58
5
23
39
33
64
1
42
72
41
2
0
44
31
17
27
49
34
14
7
21
50
26
27
4
48
29
7
40
54
58
23
53
26
53
37
0
46
61
30
3
23
30
4
12
67
33
13
8
4
4
8
10
11
34
8
25
44
21
34
65
16
13
17
42
19
7
30
20
65
33
30
18
59
14
45
48
7
17
33
39
60
40
10
8
9
39
11
13
10
51
8
17
55
16
21
17
28
54
53
45
30
60
2
54
29
27
69
37
82
47
17
61
33
12
23
14
36
52
18
61
4
53
20
55
71
9
66
41
8
63
17
47
33
27
9
50
35
58
17
15
8
56
46
63
12
23
11
34
30
47
7
53
38
26
4
31
3
53
64
44
10
14
61
17
46
41
49
42
45
23
57
32
24
7
50
52
52
43
28
49
31
34
18
13
9
26
15
14
9
55
26
23
7
8
0
33
48
52
5
44
54
4
61
27
45
28
8
0
63
69
44
49
29
47
12
8
15
1
4
19
12
0
64
28
14
20
14
63
11
20
14
59
32
13
12
68
33
3
29
49
24
33
10
16
33
14
8
52
43
58
50
54
10
47
12
5
39
1
30
28
13
0
13
16
62
28
41
0
4
35
36
43
8
23
21
27
12
38
0
28
81
12
26
35
45
44
54
29
6
31
0
17
15
9
1
22
25
46
22
58
12
49
22
59
39
6
20
57
10
32
10
8
1
5
6
14
5
58
3
39
36
29
56
23
16
46
56
8
45
47
48
7
27
20
28
12
32
6
7
4
21
40
4
33
26
54
16
53
44
12
8
48
54
38
21
56
0
25
34
49
5
6
21
3
4
0
24
44
4
24
0
57
53
41
0
39
72
37
39
4
12
25
51
31
3
22
41
3
64
0
40
13
10
5
54
7
24
9
25
7
1
7
51
31
2
15
8
51
64
58
14
43
49
13
4
56
63
12
1
59
57
34
36
12
54
66
22
6
1
52
24
4
5
5
18
41
36
12
6
55
57
36
67
32
12
34
42
23
51
39
0
14
12
0
4
11
10
13
57
13
13
19
48
29
31
8
15
28
0
4
47
25
46
49
7
2
67
9
51
11
7
43
31
15
15
19
57
40
48
46
29
4
22
63
19
17
7
24
51
14
23
52
40
49
45
10
26
0
13
5
26
48
23
48
49
40
31
45
52
31
6
38
54
15
26
0
27
4
43
12
34
22
18
58
17
0
23
12
30
29
19
46
26
50
8
41
32
43
13
58
22
12
14
0
0
17
39
33
9
47
49
4
58
5
7
8
54
16
10
16
42
56
44
4
32
4
9
11
49
46
47
12
8
44
42
58
26
0
26
8
2
23
66
25
23
21
15
10
38
2
11
9
38
12
61
51
9
7
58
63
17
43
7
9
20
8
8
6
24
22
17
47
31
47
55
44
26
7
31
4
18
36
52
0
52
7
11
11
43
31
31
63
13
53
14
28
5
21
4
4
49
7
6
33
15
6
58
16
9
17
17
41
58
16
22
4
0
28
45
21
30
50
25
29
20
29
58
8
8
39
8
10
56
30
0
32
8
38
3
30
1
49
30
70
21
11
8
34
40
52
40
30
23
13
11
47
20
25
1
22
48
13
17
20
11
11
24
59
34
13
29
56
57
32
47
49
32
20
55
8
52
7
76
11
59
8
41
6
19
10
6
4
13
10
3
25
12
28
10
48
9
42
40
41
26
32
14
29
7
57
8
59
1
36
22
4
52
37
2
37
10
4
14
15
2
37
2
48
17
0
4
37
49
53
70
43
0
7
10
29
10
69
20
75
38
37
49
52
47
55
5
44
4
22
21
13
4
33
11
18
35
50
20
28
4
4
17
23
34
51
43
5
45
16
19
3
30
14
36
47
4
22
31
40
34
8
57
61
23
25
59
8
39
0
23
20
12
47
56
21
43
5
49
29
56
27
27
1
13
54
54
26
2
40
68
31
57
50
18
50
13
15
14
36
71
4
17
16
25
13
29
3
21
25
44
39
38
30
27
48
34
4
20
14
55
23
6
12
9
19
46
4
7
21
17
26
4
61
31
17
9
9
13
13
15
7
41
29
40
53
41
38
25
39
26
41
23
0
4
0
50
26
60
51
21
49
23
4
28
20
22
9
53
3
11
27
8
10
38
12
14
13
34
53
43
56
28
33
26
15
16
55
7
31
3
51
23
21
23
25
22
4
1
14
11
8
5
68
9
10
24
56
4
36
7
31
59
3
3
4
48
63
66
50
5
37
24
47
17
44
35
4
48
64
41
11
12
12
55
4
13
46
15
51
4
63
56
19
59
50
6
56
17
18
52
15
6
5
36
5
47
54
41
47
48
45
65
33
28
23
64
43
46
28
0
9
42
34
12
58
5
11
55
19
65
28
18
38
17
5
11
37
48
18
14
13
23
30
40
38
9
25
40
30
15
11
40
11
52
34
12
17
62
7
42
4
35
50
58
25
18
61
65
46
63
27
22
0
3
2
5
6
80
20
11
14
4
11
47
32
1
0
44
55
31
41
19
22
34
37
48
10
4
3
37
39
60
51
76
56
30
51
53
10
8
10
50
24
11
29
0
8
69
8
1
18
34
23
31
49
35
24
16
0
51
60
20
6
2
38
13
51
42
5
11
45
7
10
52
10
16
4
19
47
26
18
22
6
26
37
45
5
12
38
9
14
41
6
70
29
24
33
34
42
6
38
9
42
37
36
51
20
42
35
49
0
1
1
14
10
35
11
28
68
21
38
63
52
53
29
12
8
4
11
24
16
3
6
2
49
32
49
7
42
17
15
46
4
64
29
4
27
8
48
55
14
28
50
10
50
5
34
6
13
21
36
5
66
18
49
15
44
29
31
15
29
19
25
28
30
13
19
28
45
40
11
12
9
10
48
9
69
48
20
17
33
14
36
19
62
49
37
64
22
60
19
6
64
54
18
51
12
9
11
4
20
33
8
48
7
4
38
8
62
50
63
1
0
4
38
28
1
27
60
19
11
23
42
46
23
1
25
33
35
52
8
15
12
40
40
57
18
14
43
0
25
16
15
25
43
8
64
56
24
52
29
66
34
30
53
36
52
63
18
10
45
35
39
69
14
47
36
45
36
26
38
3
45
52
60
19
45
9
37
46
35
19
11
36
10
44
66
19
21
32
5
0
27
13
29
52
0
20
14
48
7
28
56
44
16
12
41
0
11
35
39
25
0
4
71
9
31
3
41
65
35
32
51
59
12
14
46
23
0
55
50
5
13
30
49
33
39
3
4
65
13
30
9
7
33
28
4
3
29
36
24
18
52
21
4
39
55
29
38
5
10
32
48
56
35
14
27
30
40
23
6
17
21
31
11
54
34
6
27
54
0
39
7
6
22
22
41
54
8
69
52
10
54
51
49
0
60
49
24
61
52
46
1
7
17
25
38
29
4
13
8
8
12
66
21
15
14
2
43
27
33
27
1
40
14
32
23
43
26
4
0
40
16
6
50
36
6
64
12
62
5
7
35
23
49
16
38
66
54
22
32
14
20
25
8
19
20
67
15
34
4
32
24
57
6
31
20
12
13
8
1
44
8
9
14
8
9
12
22
57
15
53
29
41
15
0
1
13
11
47
17
26
46
34
20
32
12
12
0
45
10
7
61
10
25
21
15
4
13
17
0
49
59
35
54
0
32
41
6
13
37
14
47
4
61
47
3
18
47
13
8
60
44
28
4
45
35
58
30
17
22
23
45
50
15
0
0
20
7
57
12
6
46
49
37
38
10
54
26
46
50
21
52
8
23
57
0
61
15
28
25
3
22
27
25
18
4
37
21
17
74
53
52
15
23
53
56
50
11
33
12
29
72
53
12
21
47
40
6
24
6
8
59
34
11
53
12
3
6
61
35
49
7
72
13
23
22
32
30
3
4
48
3
1
5
73
14
13
8
3
52
38
32
66
15
13
41
54
56
41
61
43
11
0
16
38
9
1
31
69
27
33
29
79
14
25
27
58
0
8
7
17
11
25
9
75
8
57
20
18
28
13
18
39
31
41
50
15
14
18
31
62
13
59
68
52
22
35
20
42
8
4
33
83
31
20
15
59
25
37
57
11
7
3
33
63
20
32
10
68
40
28
41
42
36
43
8
62
73
40
23
36
4
70
7
63
14
58
19
10
17
37
7
10
20
10
4
29
35
32
28
28
49
29
4
33
10
15
57
13
17
61
9
52
59
7
16
8
3
0
4
41
56
29
36
62
8
55
6
51
12
5
35
23
12
22
29
56
6
24
28
3
42
23
51
0
8
30
23
0
45
32
64
53
79
59
0
8
13
1
47
10
8
7
39
15
4
20
37
6
41
25
31
52
30
7
40
7
59
67
64
6
33
20
23
25
46
69
47
71
57
36
18
31
15
50
72
34
50
54
61
22
20
0
51
21
26
9
21
26
29
0
6
26
7
16
7
4
33
6
48
25
19
45
51
46
34
48
20
11
14
54
59
29
48
54
58
53
39
57
16
15
17
52
58
15
1
49
30
13
36
26
8
57
3
56
55
41
11
55
67
14
42
18
54
67
36
26
26
38
5
7
40
49
24
41
59
58
59
47
6
4
14
6
49
29
57
3
35
5
25
26
60
60
19
7
5
58
52
8
19
10
1
29
30
61
19
4
25
54
8
12
22
63
43
4
12
8
38
17
16
9
55
15
21
3
0
5
65
24
4
35
18
23
59
45
15
64
62
8
48
8
50
38
26
2
38
4
48
41
6
36
15
32
60
6
9
39
46
29
13
17
27
48
27
8
74
56
30
13
6
4
44
41
44
17
29
4
23
19
29
26
44
12
29
59
0
42
7
40
36
42
29
7
19
10
53
34
48
55
18
21
36
8
58
46
28
25
0
4
30
20
51
4
13
13
4
0
59
36
7
10
30
32
25
27
25
0
57
15
42
9
53
18
51
22
48
21
5
1
18
12
22
30
4
19
29
13
40
45
0
27
33
20
27
0
14
18
53
27
12
48
16
8
9
40
63
24
60
2
43
6
50
7
47
53
13
46
11
33
21
69
33
25
27
11
31
17
40
19
28
21
62
29
17
57
50
6
38
9
6
55
12
4
50
1
24
27
1
56
29
9
17
4
31
21
11
18
8
38
8
31
35
8
45
41
4
59
32
4
36
24
39
49
55
50
35
50
69
40
36
62
4
29
16
60
41
56
84
36
6
23
33
48
13
13
49
15
25
25
41
3
4
7
39
28
17
19
13
20
54
8
47
53
6
31
35
46
16
17
57
54
13
11
28
33
24
0
61
4
18
41
60
18
15
50
34
54
0
22
41
37
49
51
45
50
32
10
14
21
7
57
62
14
29
1
47
23
5
18
10
24
18
24
33
7
4
48
43
0
59
47
4
57
47
39
33
51
5
5
52
12
60
15
11
34
57
22
48
13
4
1
13
4
45
3
14
53
2
21
0
48
0
50
24
14
20
19
59
52
35
42
17
16
12
40
44
34
29
11
34
29
42
1
60
28
13
22
15
24
25
1
67
11
69
55
30
11
32
63
30
31
1
2
3
1
21
4
29
39
11
41
44
63
58
66
60
14
8
54
36
33
46
30
18
17
10
18
4
43
10
0
66
42
30
14
14
39
26
17
30
18
11
8
32
21
10
49
48
36
45
50
14
16
22
7
56
61
31
30
21
24
8
10
34
40
39
4
11
3
4
49
50
64
71
19
1
9
12
34
11
25
49
69
37
49
59
55
24
34
32
0
46
57
8
31
11
30
24
15
28
24
52
8
40
14
17
6
38
40
11
6
13
46
19
10
39
27
54
19
71
12
10
67
14
13
10
5
9
6
49
7
7
10
37
41
33
30
60
36
10
23
25
4
46
3
22
15
8
44
54
8
38
11
38
9
40
56
17
57
7
23
19
0
4
43
60
8
1
4
15
41
10
26
4
58
4
31
36
4
50
12
18
37
16
18
19
37
0
4
14
62
52
45
39
26
25
20
39
27
16
37
31
41
8
4
40
17
24
23
30
11
3
37
31
17
29
60
14
48
14
25
13
29
62
31
16
4
8
24
56
27
40
36
40
4
0
50
4
81
19
20
22
37
51
8
51
42
32
19
35
50
42
7
28
17
61
57
28
28
56
19
19
17
12
15
0
68
4
3
9
31
37
8
49
5
44
18
16
14
10
49
3
63
33
9
22
17
48
21
7
47
47
4
29
10
12
4
7
0
55
20
19
11
25
26
21
65
43
41
10
48
67
54
8
25
30
46
87
33
53
38
16
43
39
59
47
8
26
50
34
9
32
8
29
50
28
42
6
32
17
8
14
60
4
47
43
21
9
10
40
62
43
7
16
32
0
58
16
23
26
57
44
31
19
8
34
40
8
54
27
26
42
3
48
24
12
52
59
42
12
3
49
32
31
43
29
51
44
43
25
14
4
57
27
5
49
28
52
23
8
10
19
11
20
5
71
63
54
4
19
15
19
5
4
0
0
63
37
37
34
28
18
33
0
26
8
57
9
26
16
13
15
5
50
24
26
65
4
42
19
28
34
16
74
10
5
15
50
8
52
25
38
48
36
40
8
6
38
10
21
28
66
4
41
49
25
47
59
0
7
49
41
21
29
19
31
48
60
68
4
24
6
65
5
16
4
15
7
1
50
65
4
8
53
31
26
24
14
48
53
38
15
6
7
36
66
30
48
32
4
0
17
5
24
6
3
7
41
36
16
30
14
52
4
3
45
51
37
32
70
2
58
4
8
25
9
12
10
1
55
34
20
7
8
34
4
7
37
18
3
66
50
54
56
70
5
24
14
46
57
16
46
16
51
58
56
57
18
1
36
8
22
7
1
52
50
45
9
17
2
13
47
16
48
4
3
59
26
27
19
13
50
62
22
1
56
10
3
18
4
68
34
53
7
1
15
31
51
45
30
13
19
57
32
43
8
18
42
12
38
4
34
10
16
10
61
63
43
18
29
8
42
58
14
43
11
27
40
13
17
32
52
39
33
68
66
23
8
24
12
13
3
36
3
31
47
51
19
39
34
63
10
29
10
38
41
29
66
23
37
16
49
11
26
24
50
30
38
23
62
58
12
8
19
62
25
20
37
53
27
11
7
29
25
49
12
4
41
31
46
12
25
3
7
6
37
25
16
42
61
52
30
12
56
7
44
55
25
23
33
33
19
23
0
39
35
30
23
48
39
36
49
8
72
42
11
29
67
6
17
36
18
50
60
54
22
25
48
48
0
19
6
17
65
30
46
4
34
3
47
55
55
11
15
59
50
30
13
52
7
34
5
10
2
25
54
13
37
47
52
14
4
18
7
15
21
33
46
57
71
13
4
1
61
6
25
44
0
14
38
13
69
45
5
45
48
36
11
54
11
75
66
27
6
20
7
9
25
9
14
0
44
25
40
27
13
51
3
56
11
4
46
47
22
56
12
4
0
58
11
35
32
20
28
2
23
11
18
56
52
3
40
9
10
45
32
22
58
36
16
56
16
61
56
12
65
39
4
34
31
22
6
0
42
36
11
14
15
34
2
52
6
56
40
25
54
54
17
10
37
49
54
57
30
37
1
3
39
7
39
28
40
60
11
5
35
48
14
31
68
29
20
19
52
31
1
26
15
8
48
52
32
16
27
80
18
39
35
34
8
15
0
8
41
47
23
8
0
8
22
16
35
57
7
1
56
56
23
28
1
30
50
65
63
1
51
62
42
44
4
4
28
57
22
4
65
42
27
8
4
7
21
0
4
16
42
22
7
25
47
14
65
51
46
51
12
62
12
21
38
35
19
0
18
39
12
34
17
53
56
33
19
37
13
13
47
39
31
10
61
53
15
28
47
22
56
17
28
8
1
54
14
22
61
61
39
16
37
55
28
7
5
9
19
11
13
6
25
32
27
62
86
43
38
0
23
43
34
35
8
60
12
27
34
26
23
15
10
8
47
0
40
5
51
49
45
4
50
36
24
23
71
41
14
18
3
13
27
54
53
50
43
63
3
9
42
35
41
45
17
3
32
27
5
4
66
14
13
40
4
48
8
13
45
20
36
17
11
32
20
72
37
36
4
4
58
19
7
77
45
43
54
6
57
45
46
4
24
32
17
6
25
22
40
0
12
13
42
18
14
11
67
31
29
34
71
5
10
4
9
18
33
61
8
4
30
10
10
41
32
61
0
23
20
8
7
21
61
22
5
31
15
0
48
6
7
25
40
8
19
5
43
15
68
7
59
5
30
7
55
39
21
59
27
30
1
19
4
15
14
64
49
60
40
23
7
21
18
12
7
45
59
54
3
1
8
32
25
6
9
30
25
0
28
13
36
64
36
15
8
5
8
21
49
11
36
72
45
23
4
40
8
49
9
9
12
9
60
57
0
62
52
19
69
31
30
16
58
20
5
15
4
8
15
47
46
1
54
6
35
24
39
46
14
35
0
43
17
1
4
59
8
24
50
51
26
9
22
0
32
10
10
27
5
16
30
13
49
15
12
44
8
40
50
34
18
19
41
9
24
9
22
61
56
41
12
61
26
69
53
51
37
8
34
19
34
62
34
59
24
13
4
0
58
3
29
64
18
0
22
4
60
41
40
1
61
8
19
29
60
4
0
62
34
12
20
2
0
27
8
10
64
16
26
7
43
61
5
48
11
21
30
14
65
34
26
49
37
53
41
31
3
39
15
30
49
57
8
53
23
1
23
30
56
4
49
6
54
11
49
35
10
57
26
39
38
15
30
13
60
48
1
44
44
28
15
68
50
31
58
18
29
28
29
26
42
16
23
14
0
12
38
64
36
3
60
57
8
23
22
36
3
51
24
36
55
20
20
25
11
60
49
46
22
55
40
38
21
14
26
36
13
10
0
7
8
11
59
49
36
7
4
40
12
12
60
28
4
34
8
44
23
0
4
10
45
34
48
17
9
13
35
55
1
33
34
4
25
74
7
43
78
4
0
5
8
14
32
7
41
5
64
12
48
47
0
5
30
14
23
5
7
32
37
57
20
47
4
5
37
15
8
9
47
74
34
52
53
4
30
41
55
20
15
50
49
13
55
18
18
14
32
0
50
23
17
9
33
2
21
64
16
13
12
4
11
7
10
49
15
45
56
70
15
15
12
0
13
3
30
7
4
10
53
33
7
9
0
12
43
23
16
11
4
61
52
8
13
35
7
27
21
23
14
22
43
58
40
60
46
59
48
14
45
35
54
48
7
41
10
0
54
20
46
12
2
41
48
47
22
21
75
55
17
50
38
12
12
0
5
27
9
13
15
16
38
25
39
22
8
45
1
9
36
7
3
12
0
20
0
9
32
62
34
51
25
60
56
66
49
15
53
4
5
12
60
12
16
4
35
29
25
57
47
21
1
8
41
34
16
50
33
24
0
14
3
62
15
35
34
33
16
21
61
39
0
38
53
30
17
5
61
67
40
53
53
42
32
30
28
49
58
14
7
46
26
17
14
28
51
11
59
46
10
4
43
8
41
0
12
10
29
60
10
12
10
27
1
70
23
56
12
3
8
41
25
59
3
8
57
59
31
0
41
8
64
12
16
8
28
12
45
39
8
26
13
53
32
11
11
52
62
7
47
30
0
15
31
16
41
27
6
34
29
13
18
57
54
49
5
17
12
54
23
35
21
16
4
15
12
59
9
37
31
17
33
8
10
6
4
53
51
38
11
0
0
35
40
28
2
73
12
15
29
2
41
8
18
27
15
38
18
58
21
26
22
18
0
9
41
8
3
6
11
27
0
77
10
22
4
40
52
17
48
3
53
9
34
15
8
53
47
23
46
27
48
6
30
61
30
8
4
51
57
63
0
0
27
46
8
24
54
29
57
15
9
35
25
13
12
4
7
15
29
54
37
4
17
17
33
25
24
55
51
14
58
15
63
26
39
12
56
54
23
39
50
11
35
13
7
32
32
11
61
28
14
25
41
46
31
0
47
25
59
12
33
7
67
9
8
10
65
4
23
38
0
31
50
47
50
51
12
8
44
43
8
34
76
17
18
48
40
53
49
6
21
8
0
7
27
53
20
3
27
65
49
55
23
34
0
52
4
41
9
59
10
61
26
47
39
12
25
15
12
7
25
8
53
32
73
0
64
16
35
0
6
18
35
49
27
13
12
16
55
3
30
6
0
48
39
32
5
11
35
58
4
30
10
61
31
4
43
13
57
24
7
5
46
51
43
17
20
60
54
48
23
53
8
11
53
6
31
21
2
40
16
4
44
46
42
8
16
53
52
45
9
40
13
4
10
52
43
46
4
9
32
0
59
22
24
10
27
50
16
55
17
22
71
33
17
11
8
13
5
65
54
25
6
45
8
46
39
20
34
46
10
32
10
15
14
0
61
6
48
37
27
8
38
15
8
46
11
4
34
4
27
39
0
29
16
59
48
4
12
4
7
53
55
58
4
1
56
36
47
8
6
6
25
43
9
55
4
24
24
16
18
14
21
25
30
13
19
28
47
52
0
58
50
54
44
37
15
58
40
21
39
40
24
12
35
32
42
24
25
8
13
41
36
52
53
60
48
24
28
28
6
3
58
62
4
48
46
25
11
23
4
23
1
40
36
59
37
38
52
26
47
4
37
60
7
52
17
8
53
63
7
28
28
56
15
34
12
51
10
14
64
21
10
10
18
4
52
68
14
27
49
46
38
19
10
3
20
28
58
25
7
33
42
49
6
60
56
28
68
35
41
17
33
48
12
0
4
3
41
5
7
11
4
9
52
45
5
27
22
4
22
63
72
8
15
5
11
6
57
47
11
5
11
48
28
38
16
13
15
62
54
38
11
57
42
11
56
38
9
26
45
10
5
32
57
1
0
33
52
56
13
71
53
0
30
26
19
63
9
12
20
0
25
6
44
43
1
18
36
32
61
10
25
48
56
7
22
49
25
12
45
41
34
41
4
5
37
56
24
44
8
43
11
70
48
7
4
11
39
24
34
4
44
35
42
3
43
49
43
57
58
0
74
23
8
28
33
3
1
14
4
0
49
31
31
67
12
45
13
54
18
29
5
6
5
7
48
51
17
17
5
40
20
3
58
29
9
53
74
4
64
9
1
42
13
49
37
67
10
52
43
34
10
8
68
33
31
18
36
59
27
33
57
13
29
32
8
11
5
52
36
49
3
30
41
27
0
18
60
1
12
47
49
31
21
11
51
0
17
20
41
16
5
18
43
54
4
28
34
6
8
11
0
50
10
42
62
24
0
50
4
3
12
54
39
45
54
46
4
71
4
13
0
29
13
25
0
14
4
8
46
7
47
24
24
21
5
30
57
64
14
65
3
28
64
14
12
52
47
17
63
3
38
20
50
7
4
56
40
16
3
47
3
6
50
17
56
26
0
56
53
52
6
4
4
50
8
7
10
10
5
15
4
8
43
7
56
4
58
25
32
33
50
46
43
54
54
17
7
16
13
14
25
7
13
24
51
19
53
3
32
56
28
28
27
31
8
3
52
28
4
8
12
11
6
12
50
43
8
14
22
7
3
25
12
24
27
20
28
25
4
43
27
31
22
52
8
35
4
4
35
50
44
45
3
11
50
33
27
40
6
4
17
2
6
7
17
49
39
65
8
35
19
1
18
28
26
61
55
55
4
49
29
51
43
31
48
14
40
41
18
2
3
38
16
2
15
10
12
14
8
22
28
62
45
28
17
8
13
25
23
0
13
20
67
64
22
14
37
54
17
0
18
50
21
34
0
13
8
7
13
4
22
10
12
44
3
24
41
52
14
63
20
11
36
6
29
14
30
3
12
49
13
7
5
53
43
15
15
4
1
42
6
66
8
12
69
16
24
18
46
30
10
13
54
42
35
29
30
74
57
44
46
64
16
10
13
34
58
55
35
10
27
4
20
23
43
49
27
63
8
33
0
12
66
28
25
34
36
11
17
24
25
44
2
3
8
9
13
17
10
32
18
13
49
38
1
46
71
16
21
34
23
12
4
65
11
17
14
34
45
60
25
30
50
18
4
4
28
32
14
7
9
41
3
44
69
9
67
37
50
19
68
52
36
3
57
48
48
30
9
22
4
32
14
57
51
42
8
8
36
29
4
51
30
14
17
13
28
3
44
81
36
10
8
52
4
31
35
29
4
64
37
10
15
61
19
34
14
9
0
4
49
63
15
48
26
40
7
25
27
1
16
8
45
42
6
10
16
43
42
9
17
0
4
48
50
69
11
26
14
42
8
13
0
24
18
1
21
10
44
26
10
43
46
11
64
4
8
4
51
51
52
14
3
28
59
29
15
62
40
20
54
35
18
39
3
53
22
23
22
41
33
27
1
15
3
13
68
55
53
40
4
17
12
32
54
60
1
15
11
24
4
34
4
7
61
8
54
27
4
16
11
8
50
40
16
60
7
54
7
12
40
0
54
27
14
4
8
4
56
39
13
29
43
27
32
39
51
6
42
0
14
1
8
4
4
7
31
64
22
65
20
68
12
14
13
69
53
32
10
18
17
64
0
49
0
61
25
29
15
4
23
33
65
14
33
50
36
23
4
57
34
46
21
28
47
36
4
28
62
53
63
49
37
41
16
3
40
38
66
17
31
40
4
3
4
5
30
29
35
29
2
22
39
38
35
32
13
22
16
43
9
40
48
0
13
8
70
41
27
1
44
29
4
48
67
21
50
19
0
0
19
20
39
19
35
6
12
20
32
45
55
1
7
0
36
54
50
12
10
9
4
13
3
14
61
6
39
56
39
16
49
71
4
4
11
14
41
38
25
33
16
7
15
16
5
3
39
37
7
15
41
24
8
20
63
28
33
12
65
32
5
7
36
29
4
55
44
15
51
74
22
25
11
54
51
59
3
59
24
56
36
19
60
4
25
22
50
20
31
14
32
30
67
57
60
8
39
36
29
51
35
60
0
31
17
36
15
9
63
8
32
66
21
10
28
17
4
40
24
10
29
78
27
23
38
20
57
45
52
48
58
26
9
14
6
0
13
1
35
26
5
4
29
44
48
23
55
6
41
47
55
27
59
6
4
28
50
30
4
37
65
40
60
18
19
22
64
36
29
1
1
42
43
24
55
26
17
13
49
27
52
16
10
25
56
18
62
40
33
41
56
33
48
41
6
4
8
43
9
3
18
43
0
48
16
16
51
56
22
56
23
54
25
54
37
30
31
11
7
48
10
45
13
60
29
36
22
24
31
17
58
40
4
48
3
5
25
48
42
11
21
13
7
12
59
60
34
16
14
49
61
4
15
14
6
25
15
7
39
4
8
8
29
65
42
12
13
30
12
56
10
58
12
15
59
27
12
8
16
55
20
59
22
0
28
75
7
4
50
40
25
21
47
40
52
57
41
13
17
19
0
27
9
34
32
1
32
9
40
44
43
43
4
7
24
12
0
32
6
30
6
54
47
40
53
17
37
12
9
24
64
5
53
53
45
59
47
25
20
0
12
25
12
29
34
0
57
28
7
27
56
53
11
20
14
50
0
12
46
6
60
6
73
6
25
3
6
64
16
46
73
52
30
60
4
57
12
14
50
41
47
8
13
53
19
22
0
44
59
20
64
47
39
29
36
56
30
13
40
39
9
13
20
1
62
46
37
43
8
45
63
59
49
16
39
48
42
13
13
23
8
36
49
13
30
28
58
52
7
53
36
64
65
4
4
35
41
36
7
11
3
9
39
44
21
41
23
16
37
13
11
4
27
16
17
17
39
58
74
27
41
20
0
12
66
39
49
8
41
40
19
4
26
27
32
2
46
53
34
7
20
39
51
46
47
16
19
23
3
42
67
25
50
10
78
49
9
29
12
41
5
54
23
17
3
32
5
4
13
8
18
15
8
12
22
55
36
65
7
15
29
47
10
39
53
53
12
38
0
19
36
32
48
8
8
14
11
17
18
32
37
21
53
51
38
62
46
24
54
28
0
22
24
58
41
50
70
3
7
41
4
8
49
5
32
49
3
7
16
14
63
30
70
40
16
12
63
6
46
61
55
30
48
24
14
25
44
7
42
33
61
46
54
11
10
46
4
65
74
5
38
13
30
4
34
4
26
43
40
25
10
3
55
40
3
8
57
12
40
30
35
12
14
11
9
4
21
33
28
26
27
53
3
8
58
33
74
30
10
34
60
15
43
12
5
57
61
31
1
15
5
19
20
9
27
4
13
0
31
4
45
53
62
24
54
60
31
16
37
12
5
49
13
5
24
35
42
71
0
33
31
27
41
19
5
59
4
22
16
3
11
3
12
23
45
60
44
37
10
25
30
5
7
3
6
62
6
41
19
11
62
1
53
9
33
27
4
42
74
6
5
37
0
26
45
9
0
42
21
17
50
37
31
37
28
64
18
31
0
0
43
59
8
3
21
21
18
10
35
25
7
44
14
56
3
53
5
82
29
12
8
32
0
53
17
27
44
7
46
23
35
29
53
36
60
16
38
25
12
64
59
34
14
34
8
18
23
34
27
0
25
13
42
44
61
4
44
30
4
50
16
19
12
7
66
5
4
7
48
20
57
19
4
29
55
10
4
20
56
14
29
15
10
19
7
18
29
42
42
25
28
30
50
2
40
52
6
31
39
30
45
19
4
54
56
35
51
50
68
0
40
9
38
41
7
20
4
31
59
16
51
9
60
32
48
1
5
31
16
35
25
40
51
16
11
48
28
4
1
62
43
17
32
27
0
51
51
21
44
48
31
49
11
7
6
34
51
33
54
44
47
3
48
44
0
17
48
0
76
26
14
51
13
7
19
63
25
63
12
8
12
52
16
19
51
21
4
8
31
20
44
11
61
56
0
49
26
57
31
0
53
26
43
30
15
49
52
51
33
55
23
38
0
5
40
29
15
45
23
68
49
57
41
12
36
26
48
11
15
7
37
43
31
14
24
30
51
45
34
28
2
39
49
19
51
0
5
68
29
63
0
25
4
24
2
45
14
46
45
17
39
21
6
18
73
12
4
16
46
29
64
55
39
28
8
50
21
22
8
40
29
0
67
51
42
19
0
44
35
40
16
41
17
55
7
7
9
44
33
12
69
17
1
29
7
14
55
22
29
8
20
31
48
45
42
60
25
52
9
67
18
1
43
4
17
46
49
8
57
5
29
13
62
56
27
0
32
5
20
4
9
66
65
68
48
6
12
55
18
23
27
9
7
9
11
56
11
7
14
33
10
46
17
32
24
4
45
56
15
45
67
29
6
36
8
49
52
4
38
55
12
7
30
15
41
41
23
43
50
47
12
28
56
40
44
32
3
2
18
0
36
25
39
7
55
14
11
56
56
9
24
11
34
33
13
15
8
4
31
3
20
6
13
0
29
37
33
45
45
45
16
50
34
6
38
47
30
24
25
39
48
66
32
4
39
5
13
6
23
38
70
32
9
43
11
21
24
14
4
56
27
7
10
4
9
46
19
7
3
1
13
78
49
27
12
62
11
56
70
8
33
3
9
13
57
51
13
26
27
10
13
38
39
24
67
50
24
43
44
58
44
40
24
15
20
58
11
22
33
45
3
27
14
49
12
44
21
27
9
58
30
21
55
51
60
4
25
28
4
13
4
28
2
56
54
70
14
36
51
69
35
18
53
8
59
60
45
10
4
61
3
41
35
41
16
12
68
13
8
60
26
60
17
35
30
19
1
7
32
4
26
12
21
38
38
12
25
33
7
5
53
51
55
8
13
12
5
3
49
29
16
30
38
5
20
6
13
9
8
56
46
81
33
31
75
36
46
42
27
41
51
61
14
43
68
62
45
4
10
51
25
65
32
43
42
59
37
13
28
15
26
51
54
15
1
9
22
11
15
27
54
48
3
60
31
3
35
2
4
8
6
45
40
43
54
53
18
38
49
42
39
52
35
55
66
50
65
63
10
8
11
64
4
51
18
44
1
56
23
6
47
10
48
3
8
19
50
12
8
10
7
13
56
35
4
9
27
36
38
0
34
48
11
9
23
6
46
23
12
35
16
61
60
33
12
39
13
30
39
38
21
37
7
46
55
53
38
22
57
36
24
8
24
15
15
19
23
30
53
12
18
60
4
0
27
15
4
55
61
12
59
63
10
4
12
46
7
39
14
35
65
50
60
30
6
4
55
12
70
56
55
28
54
54
64
15
28
43
27
8
11
28
70
56
18
22
16
43
58
54
22
16
33
54
1
37
38
16
9
13
40
20
28
46
17
20
16
0
44
39
40
52
63
14
46
40
78
41
51
56
72
20
60
40
5
9
9
23
49
60
1
9
28
4
13
5
12
29
27
26
12
11
2
28
71
22
52
46
17
16
9
52
69
5
42
45
61
0
19
17
39
52
29
12
0
22
33
3
22
4
24
7
22
41
10
14
35
8
47
33
11
30
8
15
37
61
18
47
26
29
41
44
3
44
41
7
29
9
29
44
8
8
15
7
25
14
29
51
35
4
30
29
56
50
48
27
25
42
69
0
11
14
36
57
75
28
63
43
1
33
54
19
8
38
41
60
19
3
65
12
51
10
8
4
57
3
34
56
22
53
49
19
7
47
44
52
5
49
15
69
20
54
32
71
17
8
30
7
49
48
15
12
46
22
52
15
7
21
58
10
13
27
3
10
12
60
3
40
51
36
25
55
11
8
12
16
36
23
16
4
30
39
31
51
25
10
3
26
4
29
11
54
21
3
7
60
41
4
46
32
4
22
20
47
15
28
44
4
10
34
4
10
35
43
7
33
57
5
20
77
49
27
15
30
27
60
16
25
56
50
34
27
29
58
12
67
56
9
38
57
59
48
40
40
0
39
25
10
39
13
33
45
14
28
59
34
44
21
4
57
18
21
37
53
48
4
58
53
52
7
14
61
41
10
21
28
50
43
57
4
50
12
16
20
28
4
48
21
5
53
25
33
33
5
12
8
49
19
26
42
63
45
65
25
14
48
11
17
14
30
49
45
35
5
22
42
16
72
15
43
64
63
25
1
40
55
30
53
13
11
80
39
9
9
62
12
33
46
30
52
31
15
50
0
54
41
51
0
3
24
7
53
3
30
1
18
0
37
25
29
7
10
50
19
23
31
45
64
8
8
49
53
19
43
16
38
63
5
42
2
41
43
14
34
40
7
44
17
23
3
9
33
12
11
17
7
63
9
85
8
7
46
16
16
44
29
4
27
12
16
15
3
6
56
46
46
0
0
44
67
34
16
25
16
19
49
27
5
11
15
13
34
53
35
10
41
13
17
70
39
0
55
26
24
53
10
11
12
0
30
31
28
40
69
18
11
51
22
4
33
55
13
7
24
19
35
37
48
18
6
21
49
32
38
7
5
2
63
54
42
8
59
29
44
15
65
14
38
9
27
56
47
58
14
52
11
3
35
8
25
11
16
32
47
15
17
12
9
58
49
67
6
26
58
8
25
59
32
43
28
45
13
41
47
44
19
54
5
55
2
61
30
20
78
3
14
41
47
20
41
28
23
34
54
40
5
12
8
6
34
0
10
39
24
32
42
3
40
27
2
3
5
0
26
4
49
9
1
15
24
44
80
23
48
3
1
32
0
14
55
13
30
39
9
63
45
13
38
53
8
33
44
2
45
12
47
22
45
0
4
19
39
3
2
10
51
44
23
38
4
51
11
15
1
27
55
4
4
52
20
23
43
11
18
9
11
53
1
29
11
59
13
20
1
73
36
12
57
58
55
23
30
4
12
16
33
43
14
21
52
0
35
0
9
44
10
59
4
66
75
59
12
18
65
28
26
4
0
27
61
55
14
31
13
4
4
46
37
14
14
16
30
8
32
3
58
40
3
47
16
20
8
42
55
21
45
4
8
6
37
12
63
1
28
52
42
50
15
27
13
38
10
4
48
55
20
28
1
56
4
6
57
13
50
24
33
24
19
57
30
8
43
10
0
33
24
21
14
5
33
34
8
64
4
36
76
30
67
47
48
3
8
38
58
15
18
28
61
23
28
32
18
55
5
17
60
78
12
3
13
20
0
12
16
44
35
21
39
63
54
45
12
7
34
7
0
27
30
15
1
35
24
41
4
33
29
30
63
22
1
57
62
3
28
55
54
3
26
54
54
52
36
57
58
1
7
19
0
21
51
20
8
11
32
5
48
4
66
7
50
21
12
52
59
50
5
20
50
44
13
4
28
57
55
6
49
13
44
54
8
5
12
17
48
38
10
43
21
32
31
57
62
62
56
20
54
62
23
65
38
27
17
43
0
51
17
16
32
47
57
44
18
23
32
19
41
42
23
44
27
40
8
38
12
41
52
0
45
56
24
26
10
34
37
53
9
4
19
4
69
17
6
53
6
19
9
9
57
8
12
64
55
40
58
54
9
3
20
36
4
38
23
1
3
43
44
12
43
53
21
50
51
40
57
10
19
4
45
17
0
50
6
17
43
33
43
3
49
16
46
31
24
27
55
55
31
30
15
8
52
52
68
54
42
9
16
24
44
10
8
15
59
48
54
20
47
4
9
7
5
35
17
22
4
5
29
40
55
11
39
27
25
42
51
68
44
52
68
57
54
8
18
0
48
38
6
27
6
18
20
64
26
11
53
46
37
39
63
27
54
42
14
13
19
18
40
22
9
7
48
14
0
25
4
24
15
5
51
14
19
21
64
5
9
54
36
43
6
11
47
55
50
49
42
36
49
31
15
56
61
15
22
54
11
34
0
45
50
55
47
15
58
44
9
4
33
20
42
56
44
13
9
11
16
34
5
12
18
0
50
4
4
50
12
49
20
59
61
10
0
0
14
18
49
15
23
23
14
11
13
37
6
39
31
15
18
73
2
8
33
59
13
35
33
39
28
16
54
25
49
9
56
10
24
8
33
8
21
20
70
8
29
31
12
21
30
67
26
0
15
50
7
16
25
37
8
11
10
41
8
52
7
25
55
7
7
8
5
57
44
8
43
2
55
46
42
9
36
50
0
6
11
43
7
57
10
30
44
3
22
43
5
53
15
10
21
68
56
11
39
18
66
64
4
29
8
25
45
42
43
17
11
47
54
36
28
11
57
53
23
6
42
16
53
61
20
15
17
35
12
64
9
3
37
9
45
46
35
10
19
40
48
10
15
9
11
46
36
46
9
23
24
54
16
21
35
60
29
11
15
13
55
0
63
18
11
29
52
55
36
0
0
30
14
13
21
0
25
46
51
15
0
39
3
50
40
12
55
58
68
52
26
31
43
44
21
49
24
4
51
23
8
74
63
48
7
51
28
46
64
10
58
23
4
53
5
83
6
9
4
20
14
13
6
59
4
23
15
18
4
56
28
3
33
43
63
15
45
30
16
11
4
7
4
10
36
13
57
34
34
4
43
7
44
23
23
8
53
55
57
8
49
13
15
45
3
61
9
52
27
60
10
53
