(* The depth (km) of earthquakes worldwide from Saturday, May 16, 2009 18:04:40 UTC *)
(* to Saturday, May 23, 2009 17:50:46 UTC (7 days in total) *)
(* By Mary Goldman Spring 2009 *)

160
12
9
13
0
6
3
35
16
4
100
1
13
4
0
0
9
53
28
0
0
8
0
0
11
16
6
18
9
11
0
35
75
0
4
20
0
13
13
9
40
11
0
1
2
39
0
68
15
13
58
100
566
5
97
7
52
38
119
35
76
23
7
7
24
16
12
12
3
2
2
0
2
7
0
0
0
0
0
5
4
4
1
29
16
0
592
0
5
56
117
6
3
36
12
5
13
8
100
0
0
12
61
33
12
3
0
9
17
15
8
0
5
13
11
48
3
17
35
0
0
100
14
17
0
9
10
12
28
2
3
27
6
21
19
10
6
3
6
5
49
0
1
2
2
664
0
13
1
6
7
16
10
7
17
23
2
63
2
2
5
8
15
29
2
100
3
2
2
10
20
34
0
10
0
12
12
35
15
73
15
88
1
9
33
95
8
25
12
8
106
11
0
62
3
4
12
0
7
35
0
0
1
0
2
61
25
17
8
9
42
0
0
12
40
93
1
52
5
31
53
24
465
0
6
88
458
2
5
38
68
0
84
5
87
16
94
100
3
2
2
13
16
6
5
2
30
5
7
0
2
2
0
16
17
36
6
8
35
5
13
20
14
18
0
5
20
6
35
55
9
14
4
0
4
6
74
6
12
15
5
45
7
7
12
6
19
6
3
14
82
6
0
361
631
3
1
3
48
12
1
32
6
2
6
2
1
0
13
6
10
21
47
6
18
8
15
11
64
160
0
16
21
0
8
2
0
18
21
9
0
13
6
60
4
8
6
40
120
61
7
10
0
6
6
83
10
93
17
3
2
6
32
56
4
47
2
92
129
2
2
8
7
2
19
62
39
121
6
8
5
7
106
0
3
14
14
68
6
17
5
8
7
65
7
10
60
2
10
123
68
312
7
15
3
0
19
18
128
3
13
6
42
57
8
17
5
24
8
12
11
6
12
19
5
6
1
5
59
8
10
4
105
2
11
6
6
8
62
5
127
5
2
1
3
63
6
3
103
3
16
6
7
1
0
20
16
15
4
7
0
6
40
17
10
7
0
42
53
7
125
10
635
6
13
10
0
10
3
0
26
56
131
0
63
91
24
4
12
1
13
21
71
10
8
2
73
3
0
25
85
35
2
17
7
3
14
113
51
96
32
6
3
0
17
0
9
44
4
4
11
41
7
7
6
0
14
35
9
7
10
16
17
125
15
59
124
7
2
86
7
4
2
2
102
21
78
0
5
96
0
2
25
1
9
3
3
14
12
1
0
8
11
42
9
17
10
15
16
10
31
23
7
7
72
95
18
0
12
2
13
52
5
31
1
65
22
10
2
2
22
7
12
23
2
93
3
3
26
62
8
7
14
13
0
5
12
5
14
7
11
92
16
20
2
40
0
12
7
95
2
0
6
81
5
19
20
6
54
2
6
3
3
1
5
66
6
1
0
15
78
11
1
15
105
20
14
13
2
0
10
9
3
12
5
7
2
9
15
5
16
77
0
0
15
3
0
115
2
56
46
13
0
66
10
22
2
10
1
2
65
6
98
2
36
15
14
3
1
10
68
13
13
16
23
8
8
7
12
9
14
6
16
5
17
10
28
6
16
6
10
87
25
6
0
0
17
4
11
15
7
68
15
17
33
15
13
0
0
10
9
3
2
7
52
3
3
10
77
9
4
3
3
11
24
81
0
10
10
28
28
2
35
1
107
5
5
21
3
3
5
0
0
10
13
10
10
0
0
10
5
0
23
1
0
0
0
121
10
1
3
13
14
9
106
5
6
31
5
43
10
6
21
59
16
56
7
8
56
6
123
13
4
113
73
85
6
4
0
10
98
7
93
0
3
45
226
13
7
118
2
3
113
114
43
11
14
13
14
9
4
8
3
3
24
85
6
10
40
5
12
16
17
9
25
5
17
6
5
15
31
3
7
11
5
35
0
10
6
125
2
35
6
10
6
5
3
12
38
9
4
17
6
3
11
6
29
146
5
11
140
11
22
1
7
16
2
52
1
16
25
20
6
9
3
11
77
6
25
1
10
19
0
8
1
7
18
81
24
21
10
19
10
15
10
2
16
11
2
25
25
5
20
47
19
25
2
11
9
25
8
4
433
0
18
20
25
8
6
10
4
11
10
5
14
6
11
