(* LiveJournal data collected by Shirley Man from *)
(* http://www.livejournal.com/stats/stats.txt     *)
(* Number of new accounts on LiveJournal,         *)
(* day by day from 2000/1/1 to 2005/2/28          *)
(* Individual data are NOT labelled.              *)

10
4
12
5
7
8
5 
15
11
3
3
2
6
2 
9
6
6
3
9
7
7 
13
7
11
6
12
14
4 
15
9
12
6
11
9
8 
6
9
7
10
5
9
12 
3
6
5
13
8
5
9 
12
6
7
8
12
6
7 
9
12
9
11
8
8
3 
9
13
13
8
5
13
5 
13
10
10
10
7
13
37 
8
9
8
6
12
7
8 
8
8
7
4
2
12
15 
10
9
23
13
14
24
13 
10
9
15
25
24
23
16 
12
12
12
24
14
9
18 
18
19
27
27
39
46
46 
30
26
69
72
47
61
32 
34
38
89
57
71
63
60 
31
45
38
45
53
46
64 
47
40
65
59
65
62
59 
39
73
82
65
95
75
74 
54
60
78
68
83
89
59 
76
82
104
92
74
91
80 
80
82
90
76
86
78
67 
60
76
62
76
85
79
72 
72
85
77
62
78
69
78 
83
96
90
100
88
98
94 
82
87
111
126
118
120
101 
73
79
110
87
97
95
98 
78
119
111
113
144
109
108 
87
133
109
96
112
139
108 
92
129
151
176
127
132
129 
115
132
152
147
144
145
119 
113
115
134
130
130
136
152 
133
141
149
157
157
141
109 
137
159
184
172
158
122
131 
130
154
144
177
147
130
122 
129
121
101
113
132
136
113 
112
145
152
156
151
161
138 
108
165
192
197
191
181
158 
148
202
182
188
185
164
161 
177
188
208
194
179
162
137 
147
181
180
146
180
178
135 
166
200
183
148
177
164
197 
272
302
259
276
274
254
235 
201
258
253
249
228
222
198 
217
287
241
252
243
274
228 
210
262
287
312
287
261
264 
266
273
288
250
252
280
248 
313
314
291
313
372
268
286 
287
241
219
157
259
244
271 
309
269
382
334
254
197
21 
446
257
285
322
370
353
348 
419
431
446
433
440
412
390 
446
533
496
470
460
517
464 
467
484
539
530
509
523
457 
464
460
539
546
538
478
521 
463
601
504
499
436
517
476 
434
558
628
603
636
640
539 
553
603
675
696
635
575
537 
562
678
704
701
651
612
585 
548
657
678
745
721
702
590 
680
758
803
678
835
764
707 
678
842
892
856
823
799
722 
702
845
951
929
888
851
840 
695
963
898
905
924
907
872 
809
979
1184
1157
1172
1050
938 
1002
1200
1152
993
911
854
999 
1021
1159
1160
1152
1055
1135
1037 
1087
1241
1341
1236
1222
1191
1107 
1119
1358
1433
1339
1351
1275
1154 
1014
1403
1498
1515
1439
1420
1256 
1221
1434
1605
1735
1670
1542
1445 
1389
1758
1789
1636
1828
1684
1506 
1449
1683
1630
1928
1788
1874
1621 
1605
2484
2060
2215
2080
2205
1870 
1686
2073
2302
2217
2271
2304
1993 
1810
2052
2332
2418
1861
2464
2171 
1949
2464
2598
2602
2422
2402
2021 
1747
2149
2125
2398
2280
2307
2110 
1861
1923
2036
1982
1890
1943
1883 
1686
1791
1725
2227
2213
2255
2113 
1541
2086
2514
2364
2204
2295
2166 
1966
2201
2072
1900
2300
2348
2056 
2033
2350
2256
2136
2185
1798
1344 
648
764
1333
923
780
692
590 
713
712
703
458
585
575
527 
631
697
694
717
753
731
661 
698
828
790
744
783
737
581 
622
896
803
804
817
695
661 
695
858
842
763
731
860
695 
675
901
844
687
753
727
612 
621
828
930
839
794
728
579 
597
800
880
282
687
603
680 
744
814
974
937
832
775
728 
679
812
921
882
824
763
611 
585
656
661
659
677
592
618 
644
797
720
723
621
610
621 
616
684
643
587
600
533
436 
598
745
729
789
758
626
613 
615
771
749
810
676
488
611 
551
650
485
515
618
754
739 
695
844
652
906
1040
1014
859 
831
924
736
918
930
869
787 
773
1047
880
993
919
908
856 
868
992
1200
1098
934
954
848 
825
1014
1073
1022
1020
1008
848 
796
922
739
928
919
889
814 
820
840
948
1023
885
784
790 
772
1021
1207
1099
1102
1030
904 
862
946
1031
944
970
960
810 
837
923
1018
937
929
904
730 
748
930
884
917
967
930
804 
752
1008
1088
1178
1062
1039
849 
878
1070
1159
1067
1186
1048
966 
908
1106
1229
1094
1292
1186
963 
1015
1167
1306
1265
1152
1152
994 
954
1165
1074
1016
971
1003
841 
912
1158
1147
1074
1134
1048
876 
882
1142
1086
1094
1070
1084
902 
841
1032
1185
1102
1084
1059
882 
860
942
1129
1115
1152
977
935 
935
1114
1244
1206
1151
1122
1012 
880
984
1188
1245
1384
1253
1029 
953
1092
1320
1292
1256
1219
1016 
972
969
1308
1271
1219
1243
1075 
944
1117
1300
1276
1261
1208
1074 
911
1125
1291
1291
1324
1283
1141 
956
1162
1355
1340
1242
956
1030 
1048
1241
1452
1390
1346
1180
1116 
1039
1238
1384
1409
1288
1183
1172 
998
1231
1287
1415
1414
1274
1122 
971
1137
1359
1457
1349
1301
1154 
943
1166
1321
1270
1297
1262
1101 
946
1218
1249
1339
1302
1239
1142 
1067
1189
1286
1314
1278
1302
1057 
1054
1154
1283
1241
1286
1140
1049 
1003
1100
1435
1326
1252
1254
1026 
1040
1247
1268
1334
1192
1038
1072 
1058
1292
1276
1201
1213
1113
948 
973
1224
1310
1312
1191
1086
997 
937
1244
1281
1339
1229
1167
983 
914
1251
1228
1293
1167
1128
967 
974
1247
1393
1267
1221
1117
974 
910
1198
1290
1320
1223
1145
940 
892
1301
1352
1289
1251
937
1017 
1034
1267
1349
1364
1289
1251
1042 
1019
1391
1509
1304
1324
1243
1001 
996
1299
1393
1337
1351
1181
1059 
982
1241
1339
1261
1110
900
1002 
1019
1352
1419
1335
1370
1296
1081 
1034
1365
1386
1397
1367
1308
1108 
1056
1335
1417
1325
1236
1113
1078 
931
1094
1215
1011
897
1091
1146 
1086
1367
1464
1085
1489
1755
1674 
1540
1734
1547
1601
1559
1139
1375 
1395
1694
1627
1521
1692
1571
1388 
1316
1603
1778
1624
1627
1517
1431 
1302
1568
1727
1596
1493
1532
1360 
1309
1627
1559
1557
1488
1543
1585 
1289
1737
1854
1678
1681
1473
1165 
1388
1690
1915
2008
1187
1151
1481 
1453
1913
1801
1688
1722
1574
1431 
1389
1757
1835
1860
1746
1755
1489 
1365
1835
1957
1847
1851
1770
1439 
1430
1767
1825
1813
1854
1744
1542 
1492
1800
1937
1936
1843
1787
1520 
1491
2106
2156
1980
1970
1800
1617 
1519
1949
2274
2057
2008
1938
1614 
1477
1871
1593
2012
1890
1848
1760 
1472
1894
2267
2147
2099
1989
1646 
1597
2058
2061
2048
1967
1757
1557 
1547
1764
2069
1918
1923
1878
1642 
1571
1831
2010
1940
1774
1799
1474 
1402
1669
1922
1638
1840
1737
1575 
1397
1762
2045
1889
1755
1896
1722 
1668
2000
2292
2205
2215
1878
1796 
1720
2055
2327
2297
2201
2172
1852 
1717
2093
2160
2275
2397
2340
2016 
1731
1997
2315
2146
2384
2100
2050 
1797
2031
2408
2241
2237
2101
1642 
1759
2104
2535
2475
2474
2386
2087 
1810
2131
2499
2458
2505
2324
2029 
1648
2172
2521
2561
2554
2417
2059 
1840
2314
2354
2547
2532
2644
2192 
1913
2306
2754
2674
2494
2532
2319 
1998
2288
2560
2612
2596
2333
2095 
1931
2201
2523
2324
2567
2402
2161 
1967
2311
2497
2343
2266
2257
2032 
2005
2223
2631
2553
2409
2212
1941 
2082
2511
2355
2353
2255
2122
1871 
1919
2436
2273
2229
2131
2088
1795 
1807
2365
2590
2337
2292
2089
1808 
1914
2497
2466
2249
2081
2019
1870 
1854
2356
2296
2475
2352
2064
1785 
1755
2371
2543
2483
2256
2231
1837 
1713
2460
2634
2502
2215
2126
1916 
1818
2379
2356
2367
2329
2101
1447 
1793
2505
2577
2795
2421
2459
1963 
1862
2434
2707
2715
2624
2363
1947 
1875
2559
2760
2594
2637
2429
1972 
1916
2423
2618
2344
2219
1866
1905 
1960
2502
2969
2802
2664
2687
2268 
2248
2738
2928
3081
2839
2671
14842 
15432
17630
16591
13782
12122
10513
9432 
9468
10035
10893
10680
8012
6657
7423 
8364
9852
10541
10251
7565
9951
11121 
11139
11163
10616
9790
10007
9745
9213 
9467
11109
10626
10777
10311
10402
9570 
9428
11476
10893
10639
10252
10228
9494 
10126
12188
12128
12051
11518
10407
9839 
10047
10961
10802
11010
10212
10004
9962 
9851
11492
11105
10192
9873
9535
8550 
8858
11170
12301
11958
11500
10603
9763 
10196
11083
11093
10109
9911
9791
8656 
9171
9919
10105
10492
10232
9661
9062 
9527
10421
10371
10842
10122
9838
9089 
9759
11287
10738
11521
10648
10340
9316 
9577
10130
11306
11048
10602
10050
9065 
9606
10824
11024
10975
10288
9222
9102 
9285
10683
11127
10689
10725
10733
10072 
9881
11357
12474
12448
11522
10840
9661 
9366
10857
10723
10795
10708
10251
9485 
9650
11826
11916
11940
10941
9836
9070 
9247
11203
11250
10605
10611
9681
8687 
9259
11111
11145
10883
10706
9573
9234 
9412
11117
10685
9929
11253
10437
9504 
9782
10753
11347
11350
11083
11337
9772 
9320
10333
11207
12429
12082
10999
9955 
9912
11351
11953
11624
11141
11526
10511 
9782
11498
12520
12170
12306
12141
10964 
10021
11889
13117
13100
9864
6876
8720 
7426
11063
12065
10466
9021
11282
10061 
8909
7661
11968
12945
12954
12452
11165 
10180
11746
13310
13000
12829
12345
10759 
9661
11592
13609
12770
12991
12274
11497 
10005
11813
13483
13492
13268
12631
10768 
10289
11964
13412
13061
12885
12205
10909 
9943
11396
12830
13149
13022
12814
11750 
10664
11817
13084
12428
12486
12041
11052 
10983
12036
12636
11938
12013
11842
11001 
10963
12008
12583
11406
10907
10716
10234 
10428
11364
12089
9277
10582
9263
5514 
10100
11377
11307
10510
10251
10388
9368 
9933
11414
10721
10176
10126
9596
9070 
9626
11015
10519
10621
9209
8995
8721 
8901
9954
10039
10179
9781
8984
9327 
9175
10589
11467
11104
10139
7839
8367 
9923
11412
11367
11657
9060
10507
9665 
9362
10907
11263
11023
10352
9715
8763 
8087
8222
9174
10912
8210
6989
8845 
10274
11707
11340
11345
11064
11828
10408 
10357
10971
11432
10898
10957
10619
9824 
9870
11126
11131
10030
11932
10902
10700 
10767
12418
7787
7149
8428
10961
8917 
10913
11634
8989
10685
10716
9895
9359 
9206
10378
7585
11070
9754
8799
8512 
8512
10183
10935
10770
10759
9080
8491 
5474
6803
8433
9873
10090
10122
9262 
8109
11561
8942
10715
11604
13268
11290 
11820
12810
11822
12091
12122
12162
10939 
3614
14175
14054
12460
12380
11784
11713 
12983
13704
13099
12322
12382
11552
11195 
12217
13899
12550
11676
11555
10723
10338 
10819
12001
11469
11575
11964
11316
10334 
10685
11476
11160
12283
11660
11732
10950 
10813
12939
13998
13046
12019
12203
10053 
10106
12557
11509
